<svg width="16" height="16" viewBox="0 0 16 16" fill="none" xmlns="http://www.w3.org/2000/svg">
    <path d="M2.66655 16H13.3335C14.0406 16 14.7188 15.7191 15.219 15.219C15.7192 14.7188 16 14.0406 16 13.3335V2.66655C16 1.95945 15.7191 1.28122 15.219 0.781029C14.7188 0.28084 14.0406 0 13.3335 0H2.66655C1.95945 0 1.28122 0.280887 0.781029 0.781029C0.28084 1.28117 0 1.95945 0 2.66655V13.3335C0 14.0406 0.280887 14.7188 0.781029 15.219C1.28117 15.7192 1.95945 16 2.66655 16ZM13.3335 14.6668H2.66655C2.31312 14.6668 1.97385 14.5263 1.72391 14.2761C1.47372 14.0262 1.33327 13.6869 1.33327 13.3335V5.3333H14.6669V13.3335C14.6669 13.6869 14.5265 14.0262 14.2763 14.2761C14.0263 14.5263 13.6871 14.6668 13.3336 14.6668H13.3335ZM2.66655 1.33312H13.3335C13.6869 1.33312 14.0261 1.47357 14.2761 1.72376C14.5263 1.97372 14.6667 2.31296 14.6667 2.6664V3.99964L1.3331 3.99987V2.66639C1.3331 2.31296 1.47354 1.9737 1.72373 1.72375C1.97369 1.47356 2.31293 1.33312 2.66637 1.33312L2.66655 1.33312Z"
          fill="#ADADAD"/>
</svg>
