<svg width="79" height="28" viewBox="0 0 79 28" fill="none" xmlns="http://www.w3.org/2000/svg">
    <path d="M0.100588 9.4234V9.01809C0.100588 5.58649 1.07294 3.32352 3.01765 2.22919C3.15177 2.16164 3.2926 2.10084 3.44013 2.0468C3.58766 1.97925 3.70836 1.92521 3.80224 1.88468C3.90954 1.83064 4.05036 1.78335 4.22472 1.74282C4.39907 1.68878 4.51978 1.65501 4.58683 1.6415C4.66731 1.61448 4.80813 1.5807 5.00931 1.54017C5.22389 1.49964 5.35801 1.47937 5.41166 1.47937C5.46531 1.46586 5.61954 1.43884 5.87437 1.39831C6.12919 1.35778 6.28343 1.33076 6.33707 1.31725C7.14178 1.19566 7.54414 0.756574 7.54414 0H9.35473C9.35473 0.972738 9.17367 1.69554 8.81155 2.1684C8.46284 2.62774 7.93978 2.91821 7.24237 3.03981C7.18872 3.05332 7.11496 3.06683 7.02108 3.08034C5.50554 3.33703 4.49966 3.61399 4.00342 3.91122C3.9766 3.92473 3.94977 3.93824 3.92295 3.95175C2.97071 4.5462 2.40071 5.45814 2.21295 6.68758H2.31353C3.09142 5.80941 4.0973 5.37033 5.33119 5.37033C6.65896 5.37033 7.75872 5.82292 8.63049 6.72811C9.51567 7.61978 9.95826 8.75464 9.95826 10.1327C9.95826 11.5107 9.48885 12.6659 8.55002 13.5981C7.61119 14.5303 6.43766 14.9964 5.02942 14.9964C3.59436 14.9964 2.41412 14.4965 1.48871 13.4967C0.563295 12.4835 0.100588 11.1257 0.100588 9.4234ZM2.9573 12.3011C3.53401 12.882 4.22472 13.1725 5.02942 13.1725C5.83413 13.1725 6.51813 12.882 7.08143 12.3011C7.65814 11.7066 7.94649 10.9838 7.94649 10.1327C7.94649 9.28154 7.65814 8.5655 7.08143 7.98456C6.51813 7.39011 5.83413 7.09288 5.02942 7.09288C4.22472 7.09288 3.53401 7.39011 2.9573 7.98456C2.39401 8.5655 2.11236 9.28154 2.11236 10.1327C2.11236 10.9838 2.39401 11.7066 2.9573 12.3011Z" fill="#222222"/>
    <path d="M14.4283 12.2403C15.005 12.8618 15.7293 13.1725 16.601 13.1725C17.4728 13.1725 18.1903 12.8618 18.7536 12.2403C19.3303 11.6053 19.6187 10.7677 19.6187 9.72738C19.6187 8.68709 19.3303 7.85621 18.7536 7.23474C18.1903 6.59976 17.4728 6.28227 16.601 6.28227C15.7293 6.28227 15.005 6.59976 14.4283 7.23474C13.865 7.85621 13.5834 8.68709 13.5834 9.72738C13.5834 10.7677 13.865 11.6053 14.4283 12.2403ZM20.2021 13.5373C19.2633 14.51 18.0629 14.9964 16.601 14.9964C15.1391 14.9964 13.9321 14.51 12.9798 13.5373C12.041 12.5645 11.5716 11.2946 11.5716 9.72738C11.5716 8.16019 12.041 6.89023 12.9798 5.91749C13.9321 4.94475 15.1391 4.45838 16.601 4.45838C18.0629 4.45838 19.2633 4.94475 20.2021 5.91749C21.1543 6.89023 21.6305 8.16019 21.6305 9.72738C21.6305 11.2946 21.1543 12.5645 20.2021 13.5373Z" fill="#222222"/>
    <path d="M25.665 14.7937V6.58625H22.3456V4.66104H30.9962V6.58625H27.6768V14.7937H25.665Z" fill="#222222"/>
    <path d="M31.8095 9.93004V8.10615H38.4484V9.93004H31.8095Z" fill="#222222"/>
    <path d="M7.64472 24.2509H9.65649C9.56261 24.6697 9.40837 25.0818 9.19379 25.4871C8.99261 25.8924 8.71096 26.291 8.34884 26.6828C8.00014 27.0745 7.53743 27.392 6.96072 27.6352C6.38402 27.8784 5.74025 28 5.02942 28C3.56754 28 2.36048 27.5136 1.40824 26.5409C0.469413 25.5682 0 24.2982 0 22.731C0 21.1638 0.469413 19.8938 1.40824 18.9211C2.36048 17.9484 3.56754 17.462 5.02942 17.462C6.3706 17.462 7.42343 17.847 8.1879 18.6171C8.95237 19.3737 9.44191 20.2046 9.65649 21.1098H7.64472C7.21555 19.8938 6.34378 19.2859 5.02942 19.2859C4.15766 19.2859 3.43342 19.6034 2.85671 20.2384C2.29342 20.8598 2.01177 21.6907 2.01177 22.731C2.01177 23.7713 2.29342 24.6089 2.85671 25.2439C3.43342 25.8654 4.15766 26.1761 5.02942 26.1761C5.75366 26.1761 6.33707 25.9802 6.77966 25.5884C7.22225 25.1966 7.51061 24.7508 7.64472 24.2509Z" fill="#222222"/>
    <path d="M18.2002 27.7973L17.9991 26.6828H17.8985C17.6973 26.9394 17.4559 27.1624 17.1742 27.3515C16.5305 27.7838 15.766 28 14.8808 28C13.781 28 12.9026 27.7095 12.2454 27.1286C11.5882 26.5476 11.2596 25.7911 11.2596 24.8589C11.2596 23.8186 11.6016 23.0012 12.2856 22.4068C12.983 21.8123 14.0157 21.5151 15.3837 21.5151H17.8985V21.3124C17.8985 20.6504 17.7107 20.1303 17.3352 19.752C16.9596 19.3737 16.4433 19.1846 15.7861 19.1846C15.1423 19.1846 14.6461 19.3332 14.2974 19.6304C13.9487 19.9141 13.7408 20.2384 13.6737 20.6031H11.662C11.7156 19.7115 12.1113 18.9684 12.8489 18.3739C13.5866 17.766 14.5656 17.462 15.7861 17.462C17.087 17.462 18.0996 17.8065 18.8239 18.4955C19.5481 19.1846 19.9102 20.1235 19.9102 21.3124V27.7973H18.2002ZM17.8985 23.5416V23.1363H15.4843C14.7467 23.1363 14.1901 23.2849 13.8146 23.5821C13.4525 23.8794 13.2714 24.2712 13.2714 24.7575C13.2714 25.2304 13.4256 25.6019 13.7341 25.8721C14.0426 26.1423 14.4919 26.2774 15.082 26.2774C15.994 26.2774 16.6914 26.041 17.1742 25.5682C17.657 25.0818 17.8985 24.4063 17.8985 23.5416Z" fill="#222222"/>
    <path d="M22.4281 27.7973V17.6647H25.7475L28.1616 25.0615H28.564L30.9781 17.6647H34.2975V27.7973H32.2858V20.4005H31.8834L29.4693 27.7973H27.2563L24.8422 20.4005H24.4399V27.7973H22.4281Z" fill="#222222"/>
    <path d="M39.2611 25.2439C39.8378 25.8654 40.562 26.1761 41.4338 26.1761C42.3056 26.1761 43.0231 25.8654 43.5864 25.2439C44.1631 24.6089 44.4515 23.7713 44.4515 22.731C44.4515 21.6907 44.1631 20.8598 43.5864 20.2384C43.0231 19.6034 42.3056 19.2859 41.4338 19.2859C40.562 19.2859 39.8378 19.6034 39.2611 20.2384C38.6978 20.8598 38.4162 21.6907 38.4162 22.731C38.4162 23.7713 38.6978 24.6089 39.2611 25.2439ZM45.0349 26.5409C44.0961 27.5136 42.8957 28 41.4338 28C39.9719 28 38.7649 27.5136 37.8126 26.5409C36.8738 25.5682 36.4044 24.2982 36.4044 22.731C36.4044 21.1638 36.8738 19.8938 37.8126 18.9211C38.7649 17.9484 39.9719 17.462 41.4338 17.462C42.8957 17.462 44.0961 17.9484 45.0349 18.9211C45.9871 19.8938 46.4632 21.1638 46.4632 22.731C46.4632 24.2982 45.9871 25.5682 45.0349 26.5409Z" fill="#222222"/>
    <path d="M47.1736 27.8987V25.9735H47.6766C48.5215 25.9735 48.9909 25.4331 49.0848 24.3522L49.6883 17.6647H56.8301V27.7973H54.8184V19.4885H51.5593L51.0966 24.6562C50.9893 25.7776 50.6808 26.6017 50.1712 27.1286C49.6749 27.642 48.944 27.8987 47.9783 27.8987H47.1736Z" fill="#222222"/>
    <path d="M60.9503 21.9204H66.885C66.7777 21.0963 66.4626 20.4343 65.9395 19.9344C65.4165 19.4345 64.7593 19.1846 63.968 19.1846C63.1364 19.1846 62.4659 19.4345 61.9562 19.9344C61.4466 20.4207 61.1113 21.0828 60.9503 21.9204ZM66.3821 24.8589H68.4945C68.1994 25.6695 67.6629 26.399 66.885 27.0475C66.1206 27.6825 65.1482 28 63.968 28C62.5061 28 61.299 27.5136 60.3468 26.5409C59.408 25.5682 58.9386 24.2982 58.9386 22.731C58.9386 21.1638 59.408 19.8938 60.3468 18.9211C61.299 17.9484 62.5061 17.462 63.968 17.462C65.336 17.462 66.4827 17.9349 67.4081 18.8806C68.3335 19.8263 68.7962 21.0084 68.7962 22.427C68.7962 22.5486 68.7761 22.7918 68.7359 23.1566L68.6956 23.4403H60.9503C61.0576 24.3049 61.3862 24.994 61.9361 25.5074C62.486 26.0208 63.1633 26.2774 63.968 26.2774C64.5313 26.2774 65.0275 26.1423 65.4567 25.8721C65.8993 25.5884 66.2077 25.2507 66.3821 24.8589ZM61.0509 15.6381V13.6116H63.0627V15.6381H61.0509ZM64.6721 15.6381V13.6116H66.6839V15.6381H64.6721Z" fill="#222222"/>
    <path d="M72.8355 27.7973V19.5899H69.5161V17.6647H78.1667V19.5899H74.8473V27.7973H72.8355Z" fill="#222222"/>
</svg>
